START RECORD GO HERE.                                                   S      1
1H,,1H;,5HPart1,8Hrail.igs,62HDASSAULT SYSTEMES CATIA Version 5-6 ReleasG      1
e 2014 - www.3ds.com,35HV5-6R2014_5.24.6.0.09-03-2015.15.00,32,75,6,75, G      2
15,5HPart1,1.0,2,2HMM,1000,1.0,15H20200415.130808,0.001,10000.0,7Hga83miG      3
n,3HADS,11,0,15H20200415.130808,;                                       G      4
     406       1       0       0       0       0       0       000010201D      1
     406       0       0       1      15                               0D      2
     108       2       0       0       0       0       0       001010001D      3
     108       0       0       1       0                               0D      4
     110       3       0       0       0       0       0       001010001D      5
     110       0       0       1       0                               0D      6
     110       4       0       0       0       0       0       001010001D      7
     110       0       0       1       0                               0D      8
     110       5       0       0       0       0       0       001010001D      9
     110       0       0       1       0                               0D     10
     110       6       0       0       0       0       0       001010001D     11
     110       0       0       1       0                               0D     12
     102       7       0       0       0       0       0       001010001D     13
     102       0       0       1       0                               0D     14
     142       8       0       0       0       0       0       001010001D     15
     142       0       0       1       0                               0D     16
     144       9       0       0   10000       0       0       000000000D     17
     144       0       0       1       0                               0D     18
     110      10       0       0       0       0       0       001010001D     19
     110       0       0       1       0                               0D     20
     110      11       0       0       0       0       0       001010001D     21
     110       0       0       1       0                               0D     22
     120      12       0       0       0       0       0       001010001D     23
     120       0       0       1       0                               0D     24
     124      13       0       0       0       0       0       001020001D     25
     124       0       0       2       0                               0D     26
     100      15       0       0       0       0      25       001010001D     27
     100       0       0       1       0                               0D     28
     110      16       0       0       0       0       0       001010001D     29
     110       0       0       1       0                               0D     30
     124      17       0       0       0       0       0       001020001D     31
     124       0       0       2       0                               0D     32
     100      19       0       0       0       0      31       001010001D     33
     100       0       0       1       0                               0D     34
     110      20       0       0       0       0       0       001010001D     35
     110       0       0       2       0                               0D     36
     102      22       0       0       0       0       0       001010001D     37
     102       0       0       1       0                               0D     38
     142      23       0       0       0       0       0       001010001D     39
     142       0       0       1       0                               0D     40
     144      24       0       0   10000       0       0       000000000D     41
     144       0       0       1       0                               0D     42
     108      25       0       0       0       0       0       001010001D     43
     108       0       0       2       0                               0D     44
     110      27       0       0       0       0       0       001010001D     45
     110       0       0       2       0                               0D     46
     110      29       0       0       0       0       0       001010001D     47
     110       0       0       2       0                               0D     48
     110      31       0       0       0       0       0       001010001D     49
     110       0       0       2       0                               0D     50
     110      33       0       0       0       0       0       001010001D     51
     110       0       0       2       0                               0D     52
     102      35       0       0       0       0       0       001010001D     53
     102       0       0       1       0                               0D     54
     142      36       0       0       0       0       0       001010001D     55
     142       0       0       1       0                               0D     56
     144      37       0       0   10000       0       0       000000000D     57
     144       0       0       1       0                               0D     58
     110      38       0       0       0       0       0       001010001D     59
     110       0       0       2       0                               0D     60
     110      40       0       0       0       0       0       001010001D     61
     110       0       0       2       0                               0D     62
     110      42       0       0       0       0       0       001010001D     63
     110       0       0       2       0                               0D     64
     110      44       0       0       0       0       0       001010001D     65
     110       0       0       2       0                               0D     66
     102      46       0       0       0       0       0       001010001D     67
     102       0       0       1       0                               0D     68
     142      47       0       0       0       0       0       001010001D     69
     142       0       0       1       0                               0D     70
     144      48       0       0   10000       0       0       000000000D     71
     144       0       0       1       0                               0D     72
     110      49       0       0       0       0       0       001010001D     73
     110       0       0       1       0                               0D     74
     110      50       0       0       0       0       0       001010001D     75
     110       0       0       1       0                               0D     76
     120      51       0       0       0       0       0       001010001D     77
     120       0       0       1       0                               0D     78
     124      52       0       0       0       0       0       001020001D     79
     124       0       0       2       0                               0D     80
     100      54       0       0       0       0      79       001010001D     81
     100       0       0       1       0                               0D     82
     110      55       0       0       0       0       0       001010001D     83
     110       0       0       1       0                               0D     84
     124      56       0       0       0       0       0       001020001D     85
     124       0       0       2       0                               0D     86
     100      58       0       0       0       0      85       001010001D     87
     100       0       0       1       0                               0D     88
     110      59       0       0       0       0       0       001010001D     89
     110       0       0       2       0                               0D     90
     102      61       0       0       0       0       0       001010001D     91
     102       0       0       1       0                               0D     92
     142      62       0       0       0       0       0       001010001D     93
     142       0       0       1       0                               0D     94
     144      63       0       0   10000       0       0       000000000D     95
     144       0       0       1       0                               0D     96
     110      64       0       0       0       0       0       001010001D     97
     110       0       0       1       0                               0D     98
     110      65       0       0       0       0       0       001010001D     99
     110       0       0       1       0                               0D    100
     110      66       0       0       0       0       0       001010001D    101
     110       0       0       1       0                               0D    102
     110      67       0       0       0       0       0       001010001D    103
     110       0       0       1       0                               0D    104
     102      68       0       0       0       0       0       001010001D    105
     102       0       0       1       0                               0D    106
     142      69       0       0       0       0       0       001010001D    107
     142       0       0       1       0                               0D    108
     144      70       0       0   10000       0       0       000000000D    109
     144       0       0       1       0                               0D    110
     110      71       0       0       0       0       0       001010001D    111
     110       0       0       2       0                               0D    112
     110      73       0       0       0       0       0       001010001D    113
     110       0       0       2       0                               0D    114
     120      75       0       0       0       0       0       001010001D    115
     120       0       0       1       0                               0D    116
     110      76       0       0       0       0       0       001010001D    117
     110       0       0       2       0                               0D    118
     124      78       0       0       0       0       0       001020001D    119
     124       0       0       2       0                               0D    120
     100      80       0       0       0       0     119       001010001D    121
     100       0       0       1       0                               0D    122
     110      81       0       0       0       0       0       001010001D    123
     110       0       0       2       0                               0D    124
     124      83       0       0       0       0       0       001020001D    125
     124       0       0       2       0                               0D    126
     100      85       0       0       0       0     125       001010001D    127
     100       0       0       1       0                               0D    128
     102      86       0       0       0       0       0       001010001D    129
     102       0       0       1       0                               0D    130
     142      87       0       0       0       0       0       001010001D    131
     142       0       0       1       0                               0D    132
     144      88       0       0   10000       0       0       000000000D    133
     144       0       0       1       0                               0D    134
     110      89       0       0       0       0       0       001010001D    135
     110       0       0       1       0                               0D    136
     124      90       0       0       0       0       0       001020001D    137
     124       0       0       2       0                               0D    138
     100      92       0       0       0       0     137       001010001D    139
     100       0       0       1       0                               0D    140
     120      93       0       0       0       0       0       001010001D    141
     120       0       0       1       0                               0D    142
     124      94       0       0       0       0       0       001020001D    143
     124       0       0       2       0                               0D    144
     100      96       0       0       0       0     143       001010001D    145
     100       0       0       1       0                               0D    146
     124      97       0       0       0       0       0       001020001D    147
     124       0       0       2       0                               0D    148
     100      99       0       0       0       0     147       001010001D    149
     100       0       0       1       0                               0D    150
     124     100       0       0       0       0       0       001020001D    151
     124       0       0       2       0                               0D    152
     100     102       0       0       0       0     151       001010001D    153
     100       0       0       1       0                               0D    154
     124     103       0       0       0       0       0       001020001D    155
     124       0       0       2       0                               0D    156
     100     105       0       0       0       0     155       001010001D    157
     100       0       0       1       0                               0D    158
     102     106       0       0       0       0       0       001010001D    159
     102       0       0       1       0                               0D    160
     142     107       0       0       0       0       0       001010001D    161
     142       0       0       1       0                               0D    162
     144     108       0       0   10000       0       0       000000000D    163
     144       0       0       1       0                               0D    164
     110     109       0       0       0       0       0       001010001D    165
     110       0       0       1       0                               0D    166
     110     110       0       0       0       0       0       001010001D    167
     110       0       0       1       0                               0D    168
     120     111       0       0       0       0       0       001010001D    169
     120       0       0       1       0                               0D    170
     110     112       0       0       0       0       0       001010001D    171
     110       0       0       1       0                               0D    172
     124     113       0       0       0       0       0       001020001D    173
     124       0       0       1       0                               0D    174
     100     114       0       0       0       0     173       001010001D    175
     100       0       0       1       0                               0D    176
     110     115       0       0       0       0       0       001010001D    177
     110       0       0       1       0                               0D    178
     124     116       0       0       0       0       0       001020001D    179
     124       0       0       2       0                               0D    180
     100     118       0       0       0       0     179       001010001D    181
     100       0       0       1       0                               0D    182
     102     119       0       0       0       0       0       001010001D    183
     102       0       0       1       0                               0D    184
     142     120       0       0       0       0       0       001010001D    185
     142       0       0       1       0                               0D    186
     144     121       0       0   10000       0       0       000000000D    187
     144       0       0       1       0                               0D    188
     108     122       0       0       0       0       0       001010001D    189
     108       0       0       1       0                               0D    190
     110     123       0       0       0       0       0       001010001D    191
     110       0       0       2       0                               0D    192
     110     125       0       0       0       0       0       001010001D    193
     110       0       0       2       0                               0D    194
     110     127       0       0       0       0       0       001010001D    195
     110       0       0       2       0                               0D    196
     110     129       0       0       0       0       0       001010001D    197
     110       0       0       2       0                               0D    198
     102     131       0       0       0       0       0       001010001D    199
     102       0       0       1       0                               0D    200
     142     132       0       0       0       0       0       001010001D    201
     142       0       0       1       0                               0D    202
     144     133       0       0   10000       0       0       000000000D    203
     144       0       0       1       0                               0D    204
     124     134       0       0       0       0       0       001020001D    205
     124       0       0       2       0                               0D    206
     100     136       0       0       0       0     205       001010001D    207
     100       0       0       1       0                               0D    208
     110     137       0       0       0       0       0       001010001D    209
     110       0       0       1       0                               0D    210
     124     138       0       0       0       0       0       001020001D    211
     124       0       0       2       0                               0D    212
     100     140       0       0       0       0     211       001010001D    213
     100       0       0       1       0                               0D    214
     110     141       0       0       0       0       0       001010001D    215
     110       0       0       2       0                               0D    216
     102     143       0       0       0       0       0       001010001D    217
     102       0       0       1       0                               0D    218
     142     144       0       0       0       0       0       001010001D    219
     142       0       0       1       0                               0D    220
     144     145       0       0   10000       0       0       000000000D    221
     144       0       0       1       0                               0D    222
     110     146       0       0       0       0       0       001010001D    223
     110       0       0       1       0                               0D    224
     110     147       0       0       0       0       0       001010001D    225
     110       0       0       1       0                               0D    226
     110     148       0       0       0       0       0       001010001D    227
     110       0       0       1       0                               0D    228
     110     149       0       0       0       0       0       001010001D    229
     110       0       0       1       0                               0D    230
     102     150       0       0       0       0       0       001010001D    231
     102       0       0       1       0                               0D    232
     142     151       0       0       0       0       0       001010001D    233
     142       0       0       1       0                               0D    234
     144     152       0       0   10000       0       0       000000000D    235
     144       0       0       1       0                               0D    236
     110     153       0       0       0       0       0       001010001D    237
     110       0       0       2       0                               0D    238
     110     155       0       0       0       0       0       001010001D    239
     110       0       0       2       0                               0D    240
     120     157       0       0       0       0       0       001010001D    241
     120       0       0       1       0                               0D    242
     110     158       0       0       0       0       0       001010001D    243
     110       0       0       2       0                               0D    244
     124     160       0       0       0       0       0       001020001D    245
     124       0       0       2       0                               0D    246
     100     162       0       0       0       0     245       001010001D    247
     100       0       0       1       0                               0D    248
     110     163       0       0       0       0       0       001010001D    249
     110       0       0       2       0                               0D    250
     124     165       0       0       0       0       0       001020001D    251
     124       0       0       2       0                               0D    252
     100     167       0       0       0       0     251       001010001D    253
     100       0       0       1       0                               0D    254
     102     168       0       0       0       0       0       001010001D    255
     102       0       0       1       0                               0D    256
     142     169       0       0       0       0       0       001010001D    257
     142       0       0       1       0                               0D    258
     144     170       0       0   10000       0       0       000000000D    259
     144       0       0       1       0                               0D    260
     110     171       0       0       0       0       0       001010001D    261
     110       0       0       1       0                               0D    262
     124     172       0       0       0       0       0       001020001D    263
     124       0       0       2       0                               0D    264
     100     174       0       0       0       0     263       001010001D    265
     100       0       0       1       0                               0D    266
     120     175       0       0       0       0       0       001010001D    267
     120       0       0       1       0                               0D    268
     124     176       0       0       0       0       0       001020001D    269
     124       0       0       2       0                               0D    270
     100     178       0       0       0       0     269       001010001D    271
     100       0       0       1       0                               0D    272
     124     179       0       0       0       0       0       001020001D    273
     124       0       0       2       0                               0D    274
     100     181       0       0       0       0     273       001010001D    275
     100       0       0       1       0                               0D    276
     124     182       0       0       0       0       0       001020001D    277
     124       0       0       2       0                               0D    278
     100     184       0       0       0       0     277       001010001D    279
     100       0       0       1       0                               0D    280
     124     185       0       0       0       0       0       001020001D    281
     124       0       0       2       0                               0D    282
     100     187       0       0       0       0     281       001010001D    283
     100       0       0       1       0                               0D    284
     102     188       0       0       0       0       0       001010001D    285
     102       0       0       1       0                               0D    286
     142     189       0       0       0       0       0       001010001D    287
     142       0       0       1       0                               0D    288
     144     190       0       0   10000       0       0       000000000D    289
     144       0       0       1       0                               0D    290
     110     191       0       0       0       0       0       001010001D    291
     110       0       0       1       0                               0D    292
     110     192       0       0       0       0       0       001010001D    293
     110       0       0       1       0                               0D    294
     120     193       0       0       0       0       0       001010001D    295
     120       0       0       1       0                               0D    296
     110     194       0       0       0       0       0       001010001D    297
     110       0       0       1       0                               0D    298
     124     195       0       0       0       0       0       001020001D    299
     124       0       0       1       0                               0D    300
     100     196       0       0       0       0     299       001010001D    301
     100       0       0       1       0                               0D    302
     110     197       0       0       0       0       0       001010001D    303
     110       0       0       1       0                               0D    304
     124     198       0       0       0       0       0       001020001D    305
     124       0       0       2       0                               0D    306
     100     200       0       0       0       0     305       001010001D    307
     100       0       0       1       0                               0D    308
     102     201       0       0       0       0       0       001010001D    309
     102       0       0       1       0                               0D    310
     142     202       0       0       0       0       0       001010001D    311
     142       0       0       1       0                               0D    312
     144     203       0       0   10000       0       0       000000000D    313
     144       0       0       1       0                               0D    314
     108     204       0       0       0       0       0       001010001D    315
     108       0       0       2       0                               0D    316
     110     206       0       0       0       0       0       001010001D    317
     110       0       0       2       0                               0D    318
     110     208       0       0       0       0       0       001010001D    319
     110       0       0       2       0                               0D    320
     110     210       0       0       0       0       0       001010001D    321
     110       0       0       2       0                               0D    322
     110     212       0       0       0       0       0       001010001D    323
     110       0       0       2       0                               0D    324
     102     214       0       0       0       0       0       001010001D    325
     102       0       0       1       0                               0D    326
     142     215       0       0       0       0       0       001010001D    327
     142       0       0       1       0                               0D    328
     144     216       0       0   10000       0       0       000000000D    329
     144       0       0       1       0                               0D    330
     110     217       0       0       0       0       0       001010001D    331
     110       0       0       1       0                               0D    332
     110     218       0       0       0       0       0       001010001D    333
     110       0       0       1       0                               0D    334
     120     219       0       0       0       0       0       001010001D    335
     120       0       0       1       0                               0D    336
     124     220       0       0       0       0       0       001020001D    337
     124       0       0       2       0                               0D    338
     100     222       0       0       0       0     337       001010001D    339
     100       0       0       1       0                               0D    340
     110     223       0       0       0       0       0       001010001D    341
     110       0       0       1       0                               0D    342
     124     224       0       0       0       0       0       001020001D    343
     124       0       0       2       0                               0D    344
     100     226       0       0       0       0     343       001010001D    345
     100       0       0       1       0                               0D    346
     110     227       0       0       0       0       0       001010001D    347
     110       0       0       2       0                               0D    348
     102     229       0       0       0       0       0       001010001D    349
     102       0       0       1       0                               0D    350
     142     230       0       0       0       0       0       001010001D    351
     142       0       0       1       0                               0D    352
     144     231       0       0   10000       0       0       000000000D    353
     144       0       0       1       0                               0D    354
     108     232       0       0       0       0       0       001010001D    355
     108       0       0       1       0                               0D    356
     110     233       0       0       0       0       0       001010001D    357
     110       0       0       1       0                               0D    358
     110     234       0       0       0       0       0       001010001D    359
     110       0       0       1       0                               0D    360
     110     235       0       0       0       0       0       001010001D    361
     110       0       0       1       0                               0D    362
     110     236       0       0       0       0       0       001010001D    363
     110       0       0       1       0                               0D    364
     102     237       0       0       0       0       0       001010001D    365
     102       0       0       1       0                               0D    366
     142     238       0       0       0       0       0       001010001D    367
     142       0       0       1       0                               0D    368
     144     239       0       0   10000       0       0       000000000D    369
     144       0       0       1       0                               0D    370
     110     240       0       0       0       0       0       001010001D    371
     110       0       0       2       0                               0D    372
     110     242       0       0       0       0       0       001010001D    373
     110       0       0       2       0                               0D    374
     120     244       0       0       0       0       0       001010001D    375
     120       0       0       1       0                               0D    376
     110     245       0       0       0       0       0       001010001D    377
     110       0       0       2       0                               0D    378
     124     247       0       0       0       0       0       001020001D    379
     124       0       0       2       0                               0D    380
     100     249       0       0       0       0     379       001010001D    381
     100       0       0       1       0                               0D    382
     110     250       0       0       0       0       0       001010001D    383
     110       0       0       2       0                               0D    384
     124     252       0       0       0       0       0       001020001D    385
     124       0       0       2       0                               0D    386
     100     254       0       0       0       0     385       001010001D    387
     100       0       0       1       0                               0D    388
     102     255       0       0       0       0       0       001010001D    389
     102       0       0       1       0                               0D    390
     142     256       0       0       0       0       0       001010001D    391
     142       0       0       1       0                               0D    392
     144     257       0       0   10000       0       0       000000000D    393
     144       0       0       1       0                               0D    394
     110     258       0       0       0       0       0       001010001D    395
     110       0       0       1       0                               0D    396
     124     259       0       0       0       0       0       001020001D    397
     124       0       0       2       0                               0D    398
     100     261       0       0       0       0     397       001010001D    399
     100       0       0       1       0                               0D    400
     120     262       0       0       0       0       0       001010001D    401
     120       0       0       1       0                               0D    402
     124     263       0       0       0       0       0       001020001D    403
     124       0       0       2       0                               0D    404
     100     265       0       0       0       0     403       001010001D    405
     100       0       0       1       0                               0D    406
     124     266       0       0       0       0       0       001020001D    407
     124       0       0       2       0                               0D    408
     100     268       0       0       0       0     407       001010001D    409
     100       0       0       1       0                               0D    410
     124     269       0       0       0       0       0       001020001D    411
     124       0       0       2       0                               0D    412
     100     271       0       0       0       0     411       001010001D    413
     100       0       0       1       0                               0D    414
     124     272       0       0       0       0       0       001020001D    415
     124       0       0       2       0                               0D    416
     100     274       0       0       0       0     415       001010001D    417
     100       0       0       1       0                               0D    418
     102     275       0       0       0       0       0       001010001D    419
     102       0       0       1       0                               0D    420
     142     276       0       0       0       0       0       001010001D    421
     142       0       0       1       0                               0D    422
     144     277       0       0   10000       0       0       000000000D    423
     144       0       0       1       0                               0D    424
     110     278       0       0       0       0       0       001010001D    425
     110       0       0       1       0                               0D    426
     110     279       0       0       0       0       0       001010001D    427
     110       0       0       1       0                               0D    428
     120     280       0       0       0       0       0       001010001D    429
     120       0       0       1       0                               0D    430
     110     281       0       0       0       0       0       001010001D    431
     110       0       0       1       0                               0D    432
     124     282       0       0       0       0       0       001020001D    433
     124       0       0       1       0                               0D    434
     100     283       0       0       0       0     433       001010001D    435
     100       0       0       1       0                               0D    436
     110     284       0       0       0       0       0       001010001D    437
     110       0       0       1       0                               0D    438
     124     285       0       0       0       0       0       001020001D    439
     124       0       0       2       0                               0D    440
     100     287       0       0       0       0     439       001010001D    441
     100       0       0       1       0                               0D    442
     102     288       0       0       0       0       0       001010001D    443
     102       0       0       1       0                               0D    444
     142     289       0       0       0       0       0       001010001D    445
     142       0       0       1       0                               0D    446
     144     290       0       0   10000       0       0       000000000D    447
     144       0       0       1       0                               0D    448
     108     291       0       0       0       0       0       001010001D    449
     108       0       0       1       0                               0D    450
     110     292       0       0       0       0       0       001010001D    451
     110       0       0       2       0                               0D    452
     110     294       0       0       0       0       0       001010001D    453
     110       0       0       2       0                               0D    454
     110     296       0       0       0       0       0       001010001D    455
     110       0       0       2       0                               0D    456
     110     298       0       0       0       0       0       001010001D    457
     110       0       0       2       0                               0D    458
     102     300       0       0       0       0       0       001010001D    459
     102       0       0       1       0                               0D    460
     142     301       0       0       0       0       0       001010001D    461
     142       0       0       1       0                               0D    462
     144     302       0       0   10000       0       0       000000000D    463
     144       0       0       1       0                               0D    464
     124     303       0       0       0       0       0       001020001D    465
     124       0       0       2       0                               0D    466
     100     305       0       0       0       0     465       001010001D    467
     100       0       0       1       0                               0D    468
     110     306       0       0       0       0       0       001010001D    469
     110       0       0       1       0                               0D    470
     124     307       0       0       0       0       0       001020001D    471
     124       0       0       2       0                               0D    472
     100     309       0       0       0       0     471       001010001D    473
     100       0       0       1       0                               0D    474
     110     310       0       0       0       0       0       001010001D    475
     110       0       0       2       0                               0D    476
     102     312       0       0       0       0       0       001010001D    477
     102       0       0       1       0                               0D    478
     142     313       0       0       0       0       0       001010001D    479
     142       0       0       1       0                               0D    480
     144     314       0       0   10000       0       0       000000000D    481
     144       0       0       1       0                               0D    482
     110     315       0       0       0       0       0       001010001D    483
     110       0       0       1       0                               0D    484
     110     316       0       0       0       0       0       001010001D    485
     110       0       0       1       0                               0D    486
     110     317       0       0       0       0       0       001010001D    487
     110       0       0       1       0                               0D    488
     110     318       0       0       0       0       0       001010001D    489
     110       0       0       1       0                               0D    490
     102     319       0       0       0       0       0       001010001D    491
     102       0       0       1       0                               0D    492
     142     320       0       0       0       0       0       001010001D    493
     142       0       0       1       0                               0D    494
     144     321       0       0   10000       0       0       000000000D    495
     144       0       0       1       0                               0D    496
     110     322       0       0       0       0       0       001010001D    497
     110       0       0       2       0                               0D    498
     110     324       0       0       0       0       0       001010001D    499
     110       0       0       2       0                               0D    500
     120     326       0       0       0       0       0       001010001D    501
     120       0       0       1       0                               0D    502
     110     327       0       0       0       0       0       001010001D    503
     110       0       0       2       0                               0D    504
     124     329       0       0       0       0       0       001020001D    505
     124       0       0       2       0                               0D    506
     100     331       0       0       0       0     505       001010001D    507
     100       0       0       1       0                               0D    508
     110     332       0       0       0       0       0       001010001D    509
     110       0       0       2       0                               0D    510
     124     334       0       0       0       0       0       001020001D    511
     124       0       0       2       0                               0D    512
     100     336       0       0       0       0     511       001010001D    513
     100       0       0       1       0                               0D    514
     102     337       0       0       0       0       0       001010001D    515
     102       0       0       1       0                               0D    516
     142     338       0       0       0       0       0       001010001D    517
     142       0       0       1       0                               0D    518
     144     339       0       0   10000       0       0       000000000D    519
     144       0       0       1       0                               0D    520
     110     340       0       0       0       0       0       001010001D    521
     110       0       0       1       0                               0D    522
     124     341       0       0       0       0       0       001020001D    523
     124       0       0       2       0                               0D    524
     100     343       0       0       0       0     523       001010001D    525
     100       0       0       1       0                               0D    526
     120     344       0       0       0       0       0       001010001D    527
     120       0       0       1       0                               0D    528
     124     345       0       0       0       0       0       001020001D    529
     124       0       0       2       0                               0D    530
     100     347       0       0       0       0     529       001010001D    531
     100       0       0       1       0                               0D    532
     124     348       0       0       0       0       0       001020001D    533
     124       0       0       2       0                               0D    534
     100     350       0       0       0       0     533       001010001D    535
     100       0       0       1       0                               0D    536
     124     351       0       0       0       0       0       001020001D    537
     124       0       0       2       0                               0D    538
     100     353       0       0       0       0     537       001010001D    539
     100       0       0       1       0                               0D    540
     124     354       0       0       0       0       0       001020001D    541
     124       0       0       2       0                               0D    542
     100     356       0       0       0       0     541       001010001D    543
     100       0       0       1       0                               0D    544
     102     357       0       0       0       0       0       001010001D    545
     102       0       0       1       0                               0D    546
     142     358       0       0       0       0       0       001010001D    547
     142       0       0       1       0                               0D    548
     144     359       0       0   10000       0       0       000000000D    549
     144       0       0       1       0                               0D    550
     110     360       0       0       0       0       0       001010001D    551
     110       0       0       1       0                               0D    552
     110     361       0       0       0       0       0       001010001D    553
     110       0       0       1       0                               0D    554
     120     362       0       0       0       0       0       001010001D    555
     120       0       0       1       0                               0D    556
     110     363       0       0       0       0       0       001010001D    557
     110       0       0       1       0                               0D    558
     124     364       0       0       0       0       0       001020001D    559
     124       0       0       1       0                               0D    560
     100     365       0       0       0       0     559       001010001D    561
     100       0       0       1       0                               0D    562
     110     366       0       0       0       0       0       001010001D    563
     110       0       0       1       0                               0D    564
     124     367       0       0       0       0       0       001020001D    565
     124       0       0       2       0                               0D    566
     100     369       0       0       0       0     565       001010001D    567
     100       0       0       1       0                               0D    568
     102     370       0       0       0       0       0       001010001D    569
     102       0       0       1       0                               0D    570
     142     371       0       0       0       0       0       001010001D    571
     142       0       0       1       0                               0D    572
     144     372       0       0   10000       0       0       000000000D    573
     144       0       0       1       0                               0D    574
406,1,12HVerbindung.1,0,0;                                             1P      1
108,0.0,0.0,1.0,40.0,0,0.0,-80.0,40.0,1.0,0,0;                         3P      2
110,-174.2021704,-80.0,40.0,0.0,-80.0,40.0,0,0;                        5P      3
110,0.0,-80.0,40.0,0.0,-60.0,40.0,0,0;                                 7P      4
110,0.0,-60.0,40.0,-174.2021704,-60.0,40.0,0,0;                        9P      5
110,-174.2021704,-60.0,40.0,-174.2021704,-80.0,40.0,0,0;              11P      6
102,4,5,7,9,11,0,0;                                                   13P      7
142,0,3,0,13,2,0,0;                                                   15P      8
144,3,1,0,15,0,1,1;                                                   17P      9
110,-174.2021704,0.0,80.0,-174.2021704,1.0,80.0,0,0;                  19P     10
110,-174.2021704,-80.0,40.0,-174.2021704,-60.0,40.0,0,0;              21P     11
120,19,21,0.0,6.283185307,0,0;                                        23P     12
124,-0.5913636636,0.8064049959,0.0,-174.2021704,0.0,0.0,-1.0,         25P     13
-80.0,-0.8064049959,-0.5913636636,0.0,80.0,0,0;                       25P     14
100,0.0,0.0,0.0,40.0,0.0,32.25619983,23.65454655,0,0;                 27P     15
110,-174.2021704,-80.0,40.0,-174.2021704,-60.0,40.0,0,0;              29P     16
124,0.0,-1.0,0.0,-174.2021704,0.0,0.0,1.0,-60.0,-1.0,0.0,0.0,         31P     17
80.0,0,0;                                                             31P     18
100,0.0,0.0,0.0,40.0,0.0,32.25619983,23.65454655,0,0;                 33P     19
110,-197.8567169,-60.0,47.74380017,-197.8567169,-80.0,                35P     20
47.74380017,0,0;                                                      35P     21
102,4,27,29,33,35,0,0;                                                37P     22
142,0,23,0,37,2,0,0;                                                  39P     23
144,23,1,0,39,0,1,1;                                                  41P     24
108,0.5913636636,0.0,0.8064049959,-78.50443401,0,-197.8567169,        43P     25
-80.0,47.74380017,1.0,0,0;                                            43P     26
110,-327.0532182,-80.0,142.4879011,-197.8567169,-80.0,                45P     27
47.74380017,0,0;                                                      45P     28
110,-197.8567169,-80.0,47.74380017,-197.8567169,-60.0,                47P     29
47.74380017,0,0;                                                      47P     30
110,-197.8567169,-60.0,47.74380017,-327.0532182,-60.0,                49P     31
142.4879011,0,0;                                                      49P     32
110,-327.0532182,-60.0,142.4879011,-327.0532182,-80.0,                51P     33
142.4879011,0,0;                                                      51P     34
102,4,45,47,49,51,0,0;                                                53P     35
142,0,43,0,53,2,0,0;                                                  55P     36
144,43,1,0,55,0,1,1;                                                  57P     37
110,-327.0532182,60.0,142.4879011,-197.8567169,60.0,47.74380017,      59P     38
0,0;                                                                  59P     39
110,-197.8567169,60.0,47.74380017,-197.8567169,80.0,47.74380017,      61P     40
0,0;                                                                  61P     41
110,-197.8567169,80.0,47.74380017,-327.0532182,80.0,142.4879011,      63P     42
0,0;                                                                  63P     43
110,-327.0532182,80.0,142.4879011,-327.0532182,60.0,142.4879011,      65P     44
0,0;                                                                  65P     45
102,4,59,61,63,65,0,0;                                                67P     46
142,0,43,0,67,2,0,0;                                                  69P     47
144,43,1,0,69,0,1,1;                                                  71P     48
110,-174.2021704,0.0,80.0,-174.2021704,1.0,80.0,0,0;                  73P     49
110,-174.2021704,60.0,40.0,-174.2021704,80.0,40.0,0,0;                75P     50
120,73,75,0.0,6.283185307,0,0;                                        77P     51
124,-0.5913636636,0.8064049959,0.0,-174.2021704,0.0,0.0,-1.0,         79P     52
60.0,-0.8064049959,-0.5913636636,0.0,80.0,0,0;                        79P     53
100,0.0,0.0,0.0,40.0,0.0,32.25619983,23.65454655,0,0;                 81P     54
110,-174.2021704,60.0,40.0,-174.2021704,80.0,40.0,0,0;                83P     55
124,0.0,-1.0,0.0,-174.2021704,0.0,0.0,1.0,80.0,-1.0,0.0,0.0,          85P     56
80.0,0,0;                                                             85P     57
100,0.0,0.0,0.0,40.0,0.0,32.25619983,23.65454655,0,0;                 87P     58
110,-197.8567169,80.0,47.74380017,-197.8567169,60.0,47.74380017,      89P     59
0,0;                                                                  89P     60
102,4,81,83,87,89,0,0;                                                91P     61
142,0,77,0,91,2,0,0;                                                  93P     62
144,77,1,0,93,0,1,1;                                                  95P     63
110,-174.2021704,60.0,40.0,0.0,60.0,40.0,0,0;                         97P     64
110,0.0,60.0,40.0,0.0,80.0,40.0,0,0;                                  99P     65
110,0.0,80.0,40.0,-174.2021704,80.0,40.0,0,0;                        101P     66
110,-174.2021704,80.0,40.0,-174.2021704,60.0,40.0,0,0;               103P     67
102,4,97,99,101,103,0,0;                                             105P     68
142,0,3,0,105,2,0,0;                                                 107P     69
144,3,1,0,107,0,1,1;                                                 109P     70
110,-268.3686042,60.0,87.05180068,-267.5621992,60.0,86.46043702,     111P     71
0,0;                                                                 111P     72
110,-327.0532182,60.0,142.4879011,-197.8567169,60.0,47.74380017,     113P     73
0,0;                                                                 113P     74
120,111,113,0.0,6.283185307,0,0;                                     115P     75
110,-332.9668548,50.0,134.4238512,-203.7703535,50.0,39.67975021,     117P     76
0,0;                                                                 117P     77
124,0.0,0.5913636636,-0.8064049959,-203.7703535,-1.0,0.0,0.0,        119P     78
60.0,0.0,0.8064049959,0.5913636636,39.67975021,0,0;                  119P     79
100,0.0,0.0,0.0,10.0,0.0,0.0,10.0,0,0;                               121P     80
110,-197.8567169,60.0,47.74380017,-327.0532182,60.0,142.4879011,     123P     81
0,0;                                                                 123P     82
124,0.5913636636,0.0,0.8064049959,-332.9668548,0.0,-1.0,0.0,         125P     83
60.0,0.8064049959,0.0,-0.5913636636,134.4238512,0,0;                 125P     84
100,0.0,0.0,0.0,10.0,0.0,0.0,10.0,0,0;                               127P     85
102,4,117,121,123,127,0,0;                                           129P     86
142,0,115,0,129,2,0,0;                                               131P     87
144,115,1,0,131,0,1,1;                                               133P     88
110,-174.2021704,60.0,80.0,-174.2021704,61.0,80.0,0,0;               135P     89
124,0.0,0.0,1.0,-174.2021704,0.0,-1.0,0.0,60.0,1.0,0.0,0.0,30.0,     137P     90
0,0;                                                                 137P     91
100,0.0,0.0,0.0,10.0,0.0,0.0,-10.0,0,0;                              139P     92
120,135,139,0.0,0.632748835,0,0;                                     141P     93
124,-0.5913636636,0.8064049959,0.0,-174.2021704,0.0,0.0,-1.0,        143P     94
50.0,-0.8064049959,-0.5913636636,0.0,80.0,0,0;                       143P     95
100,0.0,0.0,0.0,50.0,0.0,40.32024979,29.56818318,0,0;                145P     96
124,0.0,0.0,-1.0,-174.2021704,-1.0,0.0,0.0,60.0,0.0,1.0,0.0,         147P     97
30.0,0,0;                                                            147P     98
100,0.0,0.0,0.0,10.0,0.0,0.0,10.0,0,0;                               149P     99
124,0.0,-1.0,0.0,-174.2021704,0.0,0.0,1.0,60.0,-1.0,0.0,0.0,         151P    100
80.0,0,0;                                                            151P    101
100,0.0,0.0,0.0,40.0,0.0,32.25619983,23.65454655,0,0;                153P    102
124,0.5913636636,0.0,0.8064049959,-203.7703535,0.0,-1.0,0.0,         155P    103
60.0,0.8064049959,0.0,-0.5913636636,39.67975021,0,0;                 155P    104
100,0.0,0.0,0.0,10.0,0.0,0.0,10.0,0,0;                               157P    105
102,4,145,149,153,157,0,0;                                           159P    106
142,0,141,0,159,2,0,0;                                               161P    107
144,141,1,0,161,0,1,1;                                               163P    108
110,-87.10108518,60.0,30.0,-86.10108518,60.0,30.0,0,0;               165P    109
110,-174.2021704,60.0,40.0,0.0,60.0,40.0,0,0;                        167P    110
120,165,167,0.0,6.283185307,0,0;                                     169P    111
110,-174.2021704,50.0,30.0,0.0,50.0,30.0,0,0;                        171P    112
124,0.0,0.0,-1.0,0.0,-1.0,0.0,0.0,60.0,0.0,1.0,0.0,30.0,0,0;         173P    113
100,0.0,0.0,0.0,10.0,0.0,0.0,10.0,0,0;                               175P    114
110,0.0,60.0,40.0,-174.2021704,60.0,40.0,0,0;                        177P    115
124,0.0,0.0,1.0,-174.2021704,0.0,-1.0,0.0,60.0,1.0,0.0,0.0,30.0,     179P    116
0,0;                                                                 179P    117
100,0.0,0.0,0.0,10.0,0.0,0.0,10.0,0,0;                               181P    118
102,4,171,175,177,181,0,0;                                           183P    119
142,0,169,0,183,2,0,0;                                               185P    120
144,169,1,0,185,0,1,1;                                               187P    121
108,0.0,-1.0,0.0,-50.0,0,0.0,50.0,10.0,1.0,0,0;                      189P    122
110,-344.7941281,50.0,118.2957512,-215.5976268,50.0,23.55165029,     191P    123
0,0;                                                                 191P    124
110,-215.5976268,50.0,23.55165029,-203.7703535,50.0,39.67975021,     193P    125
0,0;                                                                 193P    126
110,-203.7703535,50.0,39.67975021,-332.9668548,50.0,134.4238512,     195P    127
0,0;                                                                 195P    128
110,-332.9668548,50.0,134.4238512,-344.7941281,50.0,118.2957512,     197P    129
0,0;                                                                 197P    130
102,4,191,193,195,197,0,0;                                           199P    131
142,0,189,0,199,2,0,0;                                               201P    132
144,189,1,0,201,0,1,1;                                               203P    133
124,-0.5913636636,0.8064049959,0.0,-174.2021704,0.0,0.0,-1.0,        205P    134
50.0,-0.8064049959,-0.5913636636,0.0,80.0,0,0;                       205P    135
100,0.0,0.0,0.0,70.0,0.0,56.44834971,41.39545645,0,0;                207P    136
110,-174.2021704,50.0,10.0,-174.2021704,50.0,30.0,0,0;               209P    137
124,0.0,-1.0,0.0,-174.2021704,0.0,0.0,1.0,50.0,-1.0,0.0,0.0,         211P    138
80.0,0,0;                                                            211P    139
100,0.0,0.0,0.0,50.0,0.0,40.32024979,29.56818318,0,0;                213P    140
110,-203.7703535,50.0,39.67975021,-215.5976268,50.0,23.55165029,     215P    141
0,0;                                                                 215P    142
102,4,207,209,213,215,0,0;                                           217P    143
142,0,189,0,217,2,0,0;                                               219P    144
144,189,1,0,219,0,1,1;                                               221P    145
110,-174.2021704,50.0,10.0,0.0,50.0,10.0,0,0;                        223P    146
110,0.0,50.0,10.0,0.0,50.0,30.0,0,0;                                 225P    147
110,0.0,50.0,30.0,-174.2021704,50.0,30.0,0,0;                        227P    148
110,-174.2021704,50.0,30.0,-174.2021704,50.0,10.0,0,0;               229P    149
102,4,223,225,227,229,0,0;                                           231P    150
142,0,189,0,231,2,0,0;                                               233P    151
144,189,1,0,233,0,1,1;                                               235P    152
110,-280.1958775,40.0,70.92370077,-279.3894725,40.0,70.3323371,      237P    153
0,0;                                                                 237P    154
110,-350.7077647,40.0,110.2317013,-221.5112634,40.0,15.48760033,     239P    155
0,0;                                                                 239P    156
120,237,239,0.0,6.283185307,0,0;                                     241P    157
110,-350.7077647,40.0,110.2317013,-221.5112634,40.0,15.48760033,     243P    158
0,0;                                                                 243P    159
124,-0.5913636636,0.0,0.8064049959,-215.5976268,0.0,1.0,0.0,         245P    160
40.0,-0.8064049959,0.0,-0.5913636636,23.55165029,0,0;                245P    161
100,0.0,0.0,0.0,10.0,0.0,0.0,10.0,0,0;                               247P    162
110,-215.5976268,50.0,23.55165029,-344.7941281,50.0,118.2957512,     249P    163
0,0;                                                                 249P    164
124,0.0,-0.5913636636,-0.8064049959,-344.7941281,1.0,0.0,0.0,        251P    165
40.0,0.0,-0.8064049959,0.5913636636,118.2957512,0,0;                 251P    166
100,0.0,0.0,0.0,10.0,0.0,0.0,10.0,0,0;                               253P    167
102,4,243,247,249,253,0,0;                                           255P    168
142,0,241,0,255,2,0,0;                                               257P    169
144,241,1,0,257,0,1,1;                                               259P    170
110,-174.2021704,40.0,80.0,-174.2021704,41.0,80.0,0,0;               261P    171
124,0.0,0.0,1.0,-174.2021704,0.0,1.0,0.0,40.0,-1.0,0.0,0.0,10.0,     263P    172
0,0;                                                                 263P    173
100,0.0,0.0,0.0,10.0,0.0,0.0,10.0,0,0;                               265P    174
120,261,265,0.0,0.632748835,0,0;                                     267P    175
124,-0.5913636636,0.8064049959,0.0,-174.2021704,0.0,0.0,-1.0,        269P    176
40.0,-0.8064049959,-0.5913636636,0.0,80.0,0,0;                       269P    177
100,0.0,0.0,0.0,80.0,0.0,64.51239967,47.30909309,0,0;                271P    178
124,0.0,0.0,1.0,-174.2021704,0.0,1.0,0.0,40.0,-1.0,0.0,0.0,10.0,     273P    179
0,0;                                                                 273P    180
100,0.0,0.0,0.0,10.0,0.0,0.0,10.0,0,0;                               275P    181
124,0.0,-1.0,0.0,-174.2021704,0.0,0.0,1.0,50.0,-1.0,0.0,0.0,         277P    182
80.0,0,0;                                                            277P    183
100,0.0,0.0,0.0,70.0,0.0,56.44834971,41.39545645,0,0;                279P    184
124,0.0,-0.5913636636,-0.8064049959,-215.5976268,1.0,0.0,0.0,        281P    185
40.0,0.0,-0.8064049959,0.5913636636,23.55165029,0,0;                 281P    186
100,0.0,0.0,0.0,10.0,0.0,0.0,10.0,0,0;                               283P    187
102,4,271,275,279,283,0,0;                                           285P    188
142,0,267,0,285,2,0,0;                                               287P    189
144,267,1,0,287,0,1,1;                                               289P    190
110,-87.10108518,40.0,10.0,-86.10108518,40.0,10.0,0,0;               291P    191
110,-174.2021704,40.0,0.0,0.0,40.0,0.0,0,0;                          293P    192
120,291,293,0.0,6.283185307,0,0;                                     295P    193
110,-174.2021704,40.0,0.0,0.0,40.0,0.0,0,0;                          297P    194
124,0.0,0.0,1.0,0.0,0.0,1.0,0.0,40.0,-1.0,0.0,0.0,10.0,0,0;          299P    195
100,0.0,0.0,0.0,10.0,0.0,0.0,10.0,0,0;                               301P    196
110,0.0,50.0,10.0,-174.2021704,50.0,10.0,0,0;                        303P    197
124,0.0,0.0,-1.0,-174.2021704,1.0,0.0,0.0,40.0,0.0,-1.0,0.0,         305P    198
10.0,0,0;                                                            305P    199
100,0.0,0.0,0.0,10.0,0.0,0.0,10.0,0,0;                               307P    200
102,4,297,301,303,307,0,0;                                           309P    201
142,0,295,0,309,2,0,0;                                               311P    202
144,295,1,0,311,0,1,1;                                               313P    203
108,0.5913636636,0.0,0.8064049959,-118.504434,0,-221.5112634,        315P    204
-40.0,15.48760033,1.0,0,0;                                           315P    205
110,-350.7077647,-40.0,110.2317013,-221.5112634,-40.0,               317P    206
15.48760033,0,0;                                                     317P    207
110,-221.5112634,-40.0,15.48760033,-221.5112634,40.0,                319P    208
15.48760033,0,0;                                                     319P    209
110,-221.5112634,40.0,15.48760033,-350.7077647,40.0,110.2317013,     321P    210
0,0;                                                                 321P    211
110,-350.7077647,40.0,110.2317013,-350.7077647,-40.0,                323P    212
110.2317013,0,0;                                                     323P    213
102,4,317,319,321,323,0,0;                                           325P    214
142,0,315,0,325,2,0,0;                                               327P    215
144,315,1,0,327,0,1,1;                                               329P    216
110,-174.2021704,0.0,80.0,-174.2021704,1.0,80.0,0,0;                 331P    217
110,-174.2021704,-40.0,0.0,-174.2021704,40.0,0.0,0,0;                333P    218
120,331,333,0.0,6.283185307,0,0;                                     335P    219
124,-0.5913636636,0.8064049959,0.0,-174.2021704,0.0,0.0,-1.0,        337P    220
-40.0,-0.8064049959,-0.5913636636,0.0,80.0,0,0;                      337P    221
100,0.0,0.0,0.0,80.0,0.0,64.51239967,47.30909309,0,0;                339P    222
110,-174.2021704,-40.0,0.0,-174.2021704,40.0,0.0,0,0;                341P    223
124,0.0,-1.0,0.0,-174.2021704,0.0,0.0,1.0,40.0,-1.0,0.0,0.0,         343P    224
80.0,0,0;                                                            343P    225
100,0.0,0.0,0.0,80.0,0.0,64.51239967,47.30909309,0,0;                345P    226
110,-221.5112634,40.0,15.48760033,-221.5112634,-40.0,                347P    227
15.48760033,0,0;                                                     347P    228
102,4,339,341,345,347,0,0;                                           349P    229
142,0,335,0,349,2,0,0;                                               351P    230
144,335,1,0,351,0,1,1;                                               353P    231
108,0.0,0.0,1.0,0.0,0,0.0,-40.0,0.0,1.0,0,0;                         355P    232
110,-174.2021704,-40.0,0.0,0.0,-40.0,0.0,0,0;                        357P    233
110,0.0,-40.0,0.0,0.0,40.0,0.0,0,0;                                  359P    234
110,0.0,40.0,0.0,-174.2021704,40.0,0.0,0,0;                          361P    235
110,-174.2021704,40.0,0.0,-174.2021704,-40.0,0.0,0,0;                363P    236
102,4,357,359,361,363,0,0;                                           365P    237
142,0,355,0,365,2,0,0;                                               367P    238
144,355,1,0,367,0,1,1;                                               369P    239
110,-280.1958775,-40.0,70.92370077,-279.3894725,-40.0,               371P    240
70.3323371,0,0;                                                      371P    241
110,-344.7941281,-50.0,118.2957512,-215.5976268,-50.0,               373P    242
23.55165029,0,0;                                                     373P    243
120,371,373,0.0,6.283185307,0,0;                                     375P    244
110,-344.7941281,-50.0,118.2957512,-215.5976268,-50.0,               377P    245
23.55165029,0,0;                                                     377P    246
124,0.0,-0.5913636636,0.8064049959,-215.5976268,-1.0,0.0,0.0,        379P    247
-40.0,0.0,-0.8064049959,-0.5913636636,23.55165029,0,0;               379P    248
100,0.0,0.0,0.0,10.0,0.0,0.0,10.0,0,0;                               381P    249
110,-221.5112634,-40.0,15.48760033,-350.7077647,-40.0,               383P    250
110.2317013,0,0;                                                     383P    251
124,-0.5913636636,0.0,-0.8064049959,-344.7941281,0.0,-1.0,0.0,       385P    252
-40.0,-0.8064049959,0.0,0.5913636636,118.2957512,0,0;                385P    253
100,0.0,0.0,0.0,10.0,0.0,0.0,10.0,0,0;                               387P    254
102,4,377,381,383,387,0,0;                                           389P    255
142,0,375,0,389,2,0,0;                                               391P    256
144,375,1,0,391,0,1,1;                                               393P    257
110,-174.2021704,-40.0,80.0,-174.2021704,-39.0,80.0,0,0;             395P    258
124,0.0,0.0,1.0,-174.2021704,-1.0,0.0,0.0,-40.0,0.0,-1.0,0.0,        397P    259
10.0,0,0;                                                            397P    260
100,0.0,0.0,0.0,10.0,0.0,0.0,10.0,0,0;                               399P    261
120,395,399,0.0,0.632748835,0,0;                                     401P    262
124,-0.5913636636,0.8064049959,0.0,-174.2021704,0.0,0.0,-1.0,        403P    263
-50.0,-0.8064049959,-0.5913636636,0.0,80.0,0,0;                      403P    264
100,0.0,0.0,0.0,70.0,0.0,56.44834971,41.39545645,0,0;                405P    265
124,0.0,0.0,1.0,-174.2021704,-1.0,0.0,0.0,-40.0,0.0,-1.0,0.0,        407P    266
10.0,0,0;                                                            407P    267
100,0.0,0.0,0.0,10.0,0.0,0.0,10.0,0,0;                               409P    268
124,0.0,-1.0,0.0,-174.2021704,0.0,0.0,1.0,-40.0,-1.0,0.0,0.0,        411P    269
80.0,0,0;                                                            411P    270
100,0.0,0.0,0.0,80.0,0.0,64.51239967,47.30909309,0,0;                413P    271
124,-0.5913636636,0.0,-0.8064049959,-215.5976268,0.0,-1.0,0.0,       415P    272
-40.0,-0.8064049959,0.0,0.5913636636,23.55165029,0,0;                415P    273
100,0.0,0.0,0.0,10.0,0.0,0.0,10.0,0,0;                               417P    274
102,4,405,409,413,417,0,0;                                           419P    275
142,0,401,0,419,2,0,0;                                               421P    276
144,401,1,0,421,0,1,1;                                               423P    277
110,-87.10108518,-40.0,10.0,-86.10108518,-40.0,10.0,0,0;             425P    278
110,-174.2021704,-50.0,10.0,0.0,-50.0,10.0,0,0;                      427P    279
120,425,427,0.0,6.283185307,0,0;                                     429P    280
110,-174.2021704,-50.0,10.0,0.0,-50.0,10.0,0,0;                      431P    281
124,0.0,0.0,1.0,0.0,-1.0,0.0,0.0,-40.0,0.0,-1.0,0.0,10.0,0,0;        433P    282
100,0.0,0.0,0.0,10.0,0.0,0.0,10.0,0,0;                               435P    283
110,0.0,-40.0,0.0,-174.2021704,-40.0,0.0,0,0;                        437P    284
124,0.0,0.0,-1.0,-174.2021704,0.0,-1.0,0.0,-40.0,-1.0,0.0,0.0,       439P    285
10.0,0,0;                                                            439P    286
100,0.0,0.0,0.0,10.0,0.0,0.0,10.0,0,0;                               441P    287
102,4,431,435,437,441,0,0;                                           443P    288
142,0,429,0,443,2,0,0;                                               445P    289
144,429,1,0,445,0,1,1;                                               447P    290
108,0.0,1.0,0.0,-50.0,0,0.0,-50.0,30.0,1.0,0,0;                      449P    291
110,-332.9668548,-50.0,134.4238512,-203.7703535,-50.0,               451P    292
39.67975021,0,0;                                                     451P    293
110,-203.7703535,-50.0,39.67975021,-215.5976268,-50.0,               453P    294
23.55165029,0,0;                                                     453P    295
110,-215.5976268,-50.0,23.55165029,-344.7941281,-50.0,               455P    296
118.2957512,0,0;                                                     455P    297
110,-344.7941281,-50.0,118.2957512,-332.9668548,-50.0,               457P    298
134.4238512,0,0;                                                     457P    299
102,4,451,453,455,457,0,0;                                           459P    300
142,0,449,0,459,2,0,0;                                               461P    301
144,449,1,0,461,0,1,1;                                               463P    302
124,-0.5913636636,0.8064049959,0.0,-174.2021704,0.0,0.0,-1.0,        465P    303
-50.0,-0.8064049959,-0.5913636636,0.0,80.0,0,0;                      465P    304
100,0.0,0.0,0.0,50.0,0.0,40.32024979,29.56818318,0,0;                467P    305
110,-174.2021704,-50.0,30.0,-174.2021704,-50.0,10.0,0,0;             469P    306
124,0.0,-1.0,0.0,-174.2021704,0.0,0.0,1.0,-50.0,-1.0,0.0,0.0,        471P    307
80.0,0,0;                                                            471P    308
100,0.0,0.0,0.0,70.0,0.0,56.44834971,41.39545645,0,0;                473P    309
110,-215.5976268,-50.0,23.55165029,-203.7703535,-50.0,               475P    310
39.67975021,0,0;                                                     475P    311
102,4,467,469,473,475,0,0;                                           477P    312
142,0,449,0,477,2,0,0;                                               479P    313
144,449,1,0,479,0,1,1;                                               481P    314
110,-174.2021704,-50.0,30.0,0.0,-50.0,30.0,0,0;                      483P    315
110,0.0,-50.0,30.0,0.0,-50.0,10.0,0,0;                               485P    316
110,0.0,-50.0,10.0,-174.2021704,-50.0,10.0,0,0;                      487P    317
110,-174.2021704,-50.0,10.0,-174.2021704,-50.0,30.0,0,0;             489P    318
102,4,483,485,487,489,0,0;                                           491P    319
142,0,449,0,491,2,0,0;                                               493P    320
144,449,1,0,493,0,1,1;                                               495P    321
110,-268.3686042,-60.0,87.05180068,-267.5621992,-60.0,               497P    322
86.46043702,0,0;                                                     497P    323
110,-332.9668548,-50.0,134.4238512,-203.7703535,-50.0,               499P    324
39.67975021,0,0;                                                     499P    325
120,497,499,0.0,6.283185307,0,0;                                     501P    326
110,-327.0532182,-60.0,142.4879011,-197.8567169,-60.0,               503P    327
47.74380017,0,0;                                                     503P    328
124,0.5913636636,0.0,-0.8064049959,-203.7703535,0.0,1.0,0.0,         505P    329
-60.0,0.8064049959,0.0,0.5913636636,39.67975021,0,0;                 505P    330
100,0.0,0.0,0.0,10.0,0.0,0.0,10.0,0,0;                               507P    331
110,-203.7703535,-50.0,39.67975021,-332.9668548,-50.0,               509P    332
134.4238512,0,0;                                                     509P    333
124,0.0,0.5913636636,0.8064049959,-332.9668548,1.0,0.0,0.0,          511P    334
-60.0,0.0,0.8064049959,-0.5913636636,134.4238512,0,0;                511P    335
100,0.0,0.0,0.0,10.0,0.0,0.0,10.0,0,0;                               513P    336
102,4,503,507,509,513,0,0;                                           515P    337
142,0,501,0,515,2,0,0;                                               517P    338
144,501,1,0,517,0,1,1;                                               519P    339
110,-174.2021704,-60.0,80.0,-174.2021704,-59.0,80.0,0,0;             521P    340
124,0.0,0.0,1.0,-174.2021704,1.0,0.0,0.0,-60.0,0.0,1.0,0.0,30.0,     523P    341
0,0;                                                                 523P    342
100,0.0,0.0,0.0,10.0,0.0,0.0,10.0,0,0;                               525P    343
120,521,525,0.0,0.632748835,0,0;                                     527P    344
124,-0.5913636636,0.8064049959,0.0,-174.2021704,0.0,0.0,-1.0,        529P    345
-60.0,-0.8064049959,-0.5913636636,0.0,80.0,0,0;                      529P    346
100,0.0,0.0,0.0,40.0,0.0,32.25619983,23.65454655,0,0;                531P    347
124,0.0,0.0,-1.0,-174.2021704,0.0,1.0,0.0,-60.0,1.0,0.0,0.0,         533P    348
30.0,0,0;                                                            533P    349
100,0.0,0.0,0.0,10.0,0.0,0.0,10.0,0,0;                               535P    350
124,0.0,-1.0,0.0,-174.2021704,0.0,0.0,1.0,-50.0,-1.0,0.0,0.0,        537P    351
80.0,0,0;                                                            537P    352
100,0.0,0.0,0.0,50.0,0.0,40.32024979,29.56818318,0,0;                539P    353
124,0.0,0.5913636636,0.8064049959,-203.7703535,1.0,0.0,0.0,          541P    354
-60.0,0.0,0.8064049959,-0.5913636636,39.67975021,0,0;                541P    355
100,0.0,0.0,0.0,10.0,0.0,0.0,10.0,0,0;                               543P    356
102,4,531,535,539,543,0,0;                                           545P    357
142,0,527,0,545,2,0,0;                                               547P    358
144,527,1,0,547,0,1,1;                                               549P    359
110,-87.10108518,-60.0,30.0,-86.10108518,-60.0,30.0,0,0;             551P    360
110,-174.2021704,-50.0,30.0,0.0,-50.0,30.0,0,0;                      553P    361
120,551,553,0.0,6.283185307,0,0;                                     555P    362
110,-174.2021704,-60.0,40.0,0.0,-60.0,40.0,0,0;                      557P    363
124,0.0,0.0,-1.0,0.0,0.0,1.0,0.0,-60.0,1.0,0.0,0.0,30.0,0,0;         559P    364
100,0.0,0.0,0.0,10.0,0.0,0.0,10.0,0,0;                               561P    365
110,0.0,-50.0,30.0,-174.2021704,-50.0,30.0,0,0;                      563P    366
124,0.0,0.0,1.0,-174.2021704,1.0,0.0,0.0,-60.0,0.0,1.0,0.0,30.0,     565P    367
0,0;                                                                 565P    368
100,0.0,0.0,0.0,10.0,0.0,0.0,10.0,0,0;                               567P    369
102,4,557,561,563,567,0,0;                                           569P    370
142,0,555,0,569,2,0,0;                                               571P    371
144,555,1,0,571,0,1,1;                                               573P    372
S      1G      4D    574P    372                                        T      1
